<?xml version="1.0" encoding="utf-8"?>
<!-- Generator: Adobe Illustrator 16.0.0, SVG Export Plug-In . SVG Version: 6.00 Build 0)  -->
<!DOCTYPE svg PUBLIC "-//W3C//DTD SVG 1.1//EN" "http://www.w3.org/Graphics/SVG/1.1/DTD/svg11.dtd">
<svg version="1.1" id="Layer_1" xmlns="http://www.w3.org/2000/svg" xmlns:xlink="http://www.w3.org/1999/xlink" x="0px" y="0px"
	 width="49px" height="61px" viewBox="0 0 49 61" enable-background="new 0 0 49 61" xml:space="preserve">
<g>
	<defs>
		<rect id="SVGID_1_" x="1.3" width="48.3" height="61"/>
	</defs>
	<clipPath id="SVGID_2_">
		<use xlink:href="#SVGID_1_"  overflow="visible"/>
	</clipPath>
	<path clip-path="url(#SVGID_2_)" d="M46.2,23.2h-3.9V13.1C42.3,5.8,36.5,0,29.3,0h-7.6C14.5,0,8.6,5.8,8.6,13.1v4.4
		c0,1,0.8,1.7,1.7,1.7h4.1c1,0,1.7-0.8,1.7-1.7v-2.6c0-3.9,3.1-7,7-7h4.6c3.9,0,7,3.1,7,7v8.4h-30c-1.9,0-3.5,1.6-3.5,3.5v30.8
		c0,1.9,1.6,3.5,3.5,3.5h41.3c1.9,0,3.5-1.6,3.5-3.5V26.7C49.7,24.8,48.1,23.2,46.2,23.2 M27.8,46.1V50c0,1.3-1,2.3-2.3,2.3
		c-1.3,0-2.3-1-2.3-2.3v-3.9c-2.9-1-4.9-3.7-4.9-6.9c0-4,3.3-7.3,7.3-7.3c4,0,7.3,3.3,7.3,7.3C32.7,42.4,30.7,45.1,27.8,46.1"/>
</g>
</svg>
