<?xml version="1.0" standalone="no"?>
<!DOCTYPE svg PUBLIC "-//W3C//DTD SVG 1.1//EN" "http://www.w3.org/Graphics/SVG/1.1/DTD/svg11.dtd" >
<svg xmlns="http://www.w3.org/2000/svg">
<metadata>Generated by IcoMoon</metadata>
<defs>
<font id="icomoon" horiz-adv-x="1024">
<font-face units-per-em="1024" ascent="960" descent="-64" />
<missing-glyph horiz-adv-x="1024" />
<glyph unicode="&#x20;" horiz-adv-x="512" d="" />
<glyph unicode="&#xe920;" glyph-name="idea" d="M512.013 728.643c-146.072 0-264.913-118.842-264.913-264.913 0-59.781 19.602-116.266 56.66-163.322 7.315-9.314 15.001-18.229 23.139-27.668l0.447-0.519c24.896-28.884 50.637-58.761 60.25-93.941 2.173-8.062 2.482-23.519 2.356-35.426v-20.237c0-18.52 15.015-33.534 33.534-33.534h175.595c18.52 0 33.534 15.015 33.534 33.534v20.474c-0.112 15.551 0.693 26.899 2.316 32.788 9.667 34.947 38.194 68.504 63.59 98.372l1.095 1.288c7.328 8.612 14.254 16.745 20.559 24.762 37.111 47.082 56.727 103.595 56.727 163.429-0.004 146.072-118.833 264.913-264.891 264.913zM667.475 341.785c-5.522-7.024-12.032-14.675-18.927-22.772l-1.35-1.587c-29.667-34.894-63.291-74.442-76.919-123.706-1.927-6.993-4.069-17.456-4.614-37.568h-108.705c-0.465 21.359-2.643 32.314-4.632 39.691-13.637 49.917-47.203 88.866-74.178 120.17l-0.452 0.528c-7.624 8.84-14.822 17.192-21.221 25.33-27.677 35.144-42.307 77.286-42.307 121.86 0 109.090 88.755 197.845 197.845 197.845 109.076 0 197.818-88.755 197.818-197.845 0-44.623-14.639-86.778-42.356-121.945zM599.078 79.563h-175.591c-18.52 0-33.534-15.015-33.534-33.534s15.015-33.534 33.534-33.534h175.595c18.52 0 33.534 15.015 33.534 33.534s-15.019 33.534-33.539 33.534zM555.179 3.069h-87.793c-18.52 0-33.534-15.015-33.534-33.534s15.015-33.534 33.534-33.534h87.793c18.52 0 33.534 15.015 33.534 33.534s-15.015 33.534-33.534 33.534zM974.736 497.264h-115.685c-18.52 0-33.534-15.015-33.534-33.534s15.015-33.534 33.534-33.534h115.685c18.52 0 33.534 15.015 33.534 33.534s-15.015 33.534-33.534 33.534zM198.497 463.73c0 18.52-15.015 33.534-33.534 33.534h-115.698c-18.52 0-33.534-15.015-33.534-33.534s15.015-33.534 33.534-33.534h115.698c18.52 0 33.534 15.015 33.534 33.534zM512.004 777.21c18.52 0 33.534 15.015 33.534 33.534v115.721c0 18.52-15.015 33.534-33.534 33.534s-33.534-15.015-33.534-33.534v-115.721c0-18.52 15.015-33.534 33.534-33.534zM781.099 242.054c-13.096 13.096-34.326 13.101-47.427 0.004-13.096-13.096-13.101-34.326-0.004-47.427l81.806-81.829c6.55-6.55 15.131-9.823 23.716-9.823 8.58 0 17.161 3.273 23.711 9.819 13.096 13.096 13.101 34.326 0.004 47.427l-81.806 81.829zM242.866 685.429c6.55-6.55 15.131-9.828 23.716-9.828 8.58 0 17.161 3.273 23.707 9.819 13.101 13.096 13.101 34.326 0.009 47.422l-81.775 81.806c-13.096 13.101-34.326 13.101-47.422 0.009-13.101-13.096-13.101-34.326-0.009-47.422l81.775-81.806zM242.901 242.054l-81.811-81.829c-13.096-13.096-13.092-34.33 0.004-47.422 6.546-6.546 15.131-9.819 23.711-9.819s17.165 3.273 23.716 9.823l81.811 81.829c13.096 13.096 13.092 34.33-0.004 47.422s-34.33 13.092-47.427-0.004zM757.401 675.605c8.58 0 17.165 3.273 23.716 9.823l81.788 81.802c13.096 13.096 13.092 34.33-0.004 47.422-13.096 13.096-34.33 13.096-47.422-0.004l-81.788-81.802c-13.096-13.096-13.092-34.33 0.004-47.422 6.541-6.55 15.122-9.819 23.707-9.819z" />
<glyph unicode="&#xe921;" glyph-name="flask" d="M593.549 571.084h-163.083v-134.185c0 0-234.911-387.734-235.555-388.841 1.275-0.045 630.106-0.078 630.106-0.078 1.427 0 2.765 0.030 4.055 0.078-0.63 1.122-235.525 388.841-235.525 388.841v134.185zM922.797 109.585l-217.268 358.575v403.964h44.573v87.875h-478.557v-87.875h46.925v-403.949l-217.268-358.59c-57.856-95.475-13.849-173.585 97.778-173.585h626.040c111.627 0 155.633 78.111 97.778 173.585zM881.784 18.363c-4.789-8.523-22.54-18.456-56.767-18.456h-626.037c-34.224 0-51.975 9.936-56.767 18.456-4.789 8.505-4.115 28.85 13.636 58.117l226.526 373.855v462.405h259.094v-293.579h0.138v-168.823l226.529-373.858c17.748-29.282 18.441-49.612 13.648-58.117z" />
</font></defs></svg>